total 264
-rwxrwxr-x 1 ksalem ksalem 47504 Apr  6 11:29 320sh
-rw-rw-r-- 1 ksalem ksalem 38106 Apr  6 11:29 320sh.c
-rw-rw-r-- 1 ksalem ksalem  1570 Apr  1 18:59 320sh.h
-rw-rw-r-- 1 ksalem ksalem     0 Apr  1 18:44 a.out
-rw-rw-r-- 1 ksalem ksalem    17 Apr  1 06:45 a.txt
-rw-rw-r-- 1 ksalem ksalem     8 Apr  1 06:45 b.txt
-rw-rw-r-- 1 ksalem ksalem     0 Apr  1 04:33 cd.txt
-rw-rw-r-- 1 ksalem ksalem   627 Apr  1 06:45 help.txt
-rw-rw-r-- 1 ksalem ksalem   255 Apr  1 18:59 hg.txt
-rw-rw-r-- 1 ksalem ksalem    45 Apr  1 18:59 history.txt
-rw-rw-r-- 1 ksalem ksalem    45 Apr  1 18:59 infinite.c
-rw-rw-r-- 1 ksalem ksalem     6 Apr  1 01:52 input1.txt
-rw-rw-r-- 1 ksalem ksalem 28970 Mar 31 21:53 insertion-hypo.c
-rw-rw-r-- 1 ksalem ksalem   172 Apr  1 04:23 l
-rw-rw-r-- 1 ksalem ksalem     0 Apr  1 06:45 -l
-rwxrwxr-x 1 ksalem ksalem   582 Mar 24 18:14 launcher.sh
-rw-rw-r-- 1 ksalem ksalem    38 Apr  1 04:33 l.txt
-rw-rw-r-- 1 ksalem ksalem    95 Mar 24 22:11 Makefile
-rw-rw-r-- 1 ksalem ksalem    91 Mar 24 18:14 Makefile~
-rw-rw-r-- 1 ksalem ksalem 26750 Mar 31 21:53 master-string test.c
-rw-rw-r-- 1 ksalem ksalem  1019 Apr  1 04:25 new2.txt
-rw-rw-r-- 1 ksalem ksalem   964 Apr  1 04:25 new.txt
-rw-rw-r-- 1 ksalem ksalem  2986 Apr  1 04:37 o.txt
-rw-rw-r-- 1 ksalem ksalem     5 Apr  1 21:40 out3.txt
-rw-rw-r-- 1 ksalem ksalem     0 Apr  6 11:43 outls.txt
-rw-rw-r-- 1 ksalem ksalem     0 Apr  1 21:50 outpipe.txt
-rw-rw-r-- 1 ksalem ksalem     2 Apr  1 02:05 output.txt
-rw-rw-r-- 1 ksalem ksalem   189 Apr  1 06:45 out.txt
-rw-rw-r-- 1 ksalem ksalem 21484 Apr  1 21:31 pipe.c
-rw-rw-r-- 1 ksalem ksalem   964 Apr  1 04:17 p.txt
-rw-rw-r-- 1 ksalem ksalem   293 Apr  6 11:27 README.md
-rw-rw-r-- 1 ksalem ksalem   758 Apr  1 03:32 redirect.txt
-rw-rw-r-- 1 ksalem ksalem  1067 Mar 30 00:04 up-hypothesis.c
