total 184
drwxrwxr-x 2 ksalem ksalem  4096 Apr  1 04:17 .
drwxrwxr-x 4 ksalem ksalem  4096 Mar 25 11:09 ..
-rwxrwxr-x 1 ksalem ksalem 37184 Apr  1 04:17 320sh
-rw-rw-r-- 1 ksalem ksalem 34031 Apr  1 04:17 320sh.c
-rw-rw-r-- 1 ksalem ksalem   699 Apr  1 03:26 a.txt
-rw-rw-r-- 1 ksalem ksalem    23 Mar 24 18:14 .gitignore
-rw-rw-r-- 1 ksalem ksalem     6 Apr  1 01:52 input1.txt
-rw-rw-r-- 1 ksalem ksalem 28970 Mar 31 21:53 insertion-hypo.c
-rwxrwxr-x 1 ksalem ksalem   582 Mar 24 18:14 launcher.sh
-rw-rw-r-- 1 ksalem ksalem    95 Mar 24 22:11 Makefile
-rw-rw-r-- 1 ksalem ksalem    91 Mar 24 18:14 Makefile~
-rw-rw-r-- 1 ksalem ksalem 26750 Mar 31 21:53 master-string test.c
-rw-rw-r-- 1 ksalem ksalem     2 Apr  1 02:05 output.txt
-rw-rw-r-- 1 ksalem ksalem     0 Apr  1 04:17 p.txt
-rw-rw-r-- 1 ksalem ksalem   207 Mar 25 20:38 README.md
-rw-rw-r-- 1 ksalem ksalem   758 Apr  1 03:32 redirect.txt
-rw-rw-r-- 1 ksalem ksalem  1067 Mar 30 00:04 up-hypothesis.c
